[12/Dec/2020 12:08:15] INFO [parking.services:74] Ответ от Uniteller на запрос о реккурентном платеже: OrderNumber;Response_Code;Recommendation;Message;Comment;Date;Total;Currency;CardType;CardNumber;LastName;FirstName;MiddleName;Address;Email;ApprovalCode;CVC2;CardHolder;IPAddress;BillNumber;BankName;Status;Error_Code;Error_Comment;PacketDate;PaymentType;Phone;Signature
UGYyHzh5dpVSKK2JBObsPaghx1OGaoQt7MDyqJOt7kWJ3AHFDq;AS000;АВТОРИЗАЦИЯ УСПЕШНО ЗАВЕРШЕНА;;;2020.12.12 12:08:15;1.00;RUB;mastercard;553691******1732;;;;*НЕ ЗАДАВАЛСЯ*;A.sltnv@gmail.com;091673;0;AYRAT SULTANOV;46.254.18.244;034712093385;*НЕ ЗАДАВАЛСЯ*;Authorized;;;2020.12.12 12:08:15;1;0000000;30A42A1B6A88FA432715E62AB57C16E7

[12/Dec/2020 12:08:15] INFO [parking.services:126] Деньги успешно списаны. Прошлый баланс: 0.0 р., сумма пополнения: 1.0 р.
[15/Dec/2020 14:32:40] INFO [parking.services:32] parking.services.make_payment. Invoice: Списание стоимости парковки при выезде из-за мелого баланса 2.0 руб., ID сеанса: 528,  ID счета: 6006
[15/Dec/2020 14:32:40] INFO [parking.services:66] session 528
[15/Dec/2020 14:32:41] INFO [parking.services:74] Ответ от Uniteller на запрос о реккурентном платеже: OrderNumber;Response_Code;Recommendation;Message;Comment;Date;Total;Currency;CardType;CardNumber;LastName;FirstName;MiddleName;Address;Email;ApprovalCode;CVC2;CardHolder;IPAddress;BillNumber;BankName;Status;Error_Code;Error_Comment;PacketDate;PaymentType;Phone;Signature
9B29Z5kCha1S9k43jqgK3WOGw5AsCaC2DItRbKaQ6CrZH2HX9f;AS000;АВТОРИЗАЦИЯ УСПЕШНО ЗАВЕРШЕНА;;;2020.12.15 14:32:41;2.00;RUB;mastercard;553691******1732;;;;*НЕ ЗАДАВАЛСЯ*;A.sltnv@gmail.com;077779;0;AYRAT SULTANOV;46.254.18.244;035014095889;*НЕ ЗАДАВАЛСЯ*;Authorized;;;2020.12.15 14:32:41;1;0000000;A44B43C76914C6F7E3BD2EF974BCB1E8

[15/Dec/2020 14:32:41] INFO [parking.services:126] Деньги успешно списаны. Прошлый баланс: 0.0 р., сумма пополнения: 2.0 р.
[16/Dec/2020 15:37:27] INFO [parking.services:32] parking.services.make_payment. Invoice: Автопополнение баланса на  350.0 руб., ID сеанса: None,  ID счета: 6008
[16/Dec/2020 15:37:27] INFO [parking.services:66] session None
[16/Dec/2020 15:37:27] INFO [parking.services:74] Ответ от Uniteller на запрос о реккурентном платеже: ErrorCode;ErrorMessage
23;Incorrect Parent_Order_IDP

[16/Dec/2020 17:08:15] INFO [parking.services:32] parking.services.make_payment. Invoice: Списание стоимости парковки при выезде из-за мелого баланса 1.0 руб., ID сеанса: 529,  ID счета: 6009
[16/Dec/2020 17:08:15] INFO [parking.services:66] session 529
[16/Dec/2020 17:08:16] INFO [parking.services:74] Ответ от Uniteller на запрос о реккурентном платеже: OrderNumber;Response_Code;Recommendation;Message;Comment;Date;Total;Currency;CardType;CardNumber;LastName;FirstName;MiddleName;Address;Email;ApprovalCode;CVC2;CardHolder;IPAddress;BillNumber;BankName;Status;Error_Code;Error_Comment;PacketDate;PaymentType;Phone;Signature
7F4pCSLtpy77StgblOgJL5p2uTHq3QKhQi5aBkXHfc1N7o0p0h;AS000;АВТОРИЗАЦИЯ УСПЕШНО ЗАВЕРШЕНА;;;2020.12.16 17:08:16;1.00;RUB;mastercard;553691******1732;;;;*НЕ ЗАДАВАЛСЯ*;A.sltnv@gmail.com;018255;0;AYRAT SULTANOV;46.254.18.244;035117096932;*НЕ ЗАДАВАЛСЯ*;Authorized;;;2020.12.16 17:08:16;1;0000000;BC91E38CFDC589634857E77A24ED35AC

[16/Dec/2020 17:08:16] INFO [parking.services:126] Деньги успешно списаны. Прошлый баланс: 0.0 р., сумма пополнения: 1.0 р.
[18/Dec/2020 11:25:23] INFO [parking.services:32] parking.services.make_payment. Invoice: Списание стоимости парковки при выезде из-за мелого баланса 2.0 руб., ID сеанса: 530,  ID счета: 6011
[18/Dec/2020 11:25:23] INFO [parking.services:66] session 530
[18/Dec/2020 11:25:24] INFO [parking.services:74] Ответ от Uniteller на запрос о реккурентном платеже: OrderNumber;Response_Code;Recommendation;Message;Comment;Date;Total;Currency;CardType;CardNumber;LastName;FirstName;MiddleName;Address;Email;ApprovalCode;CVC2;CardHolder;IPAddress;BillNumber;BankName;Status;Error_Code;Error_Comment;PacketDate;PaymentType;Phone;Signature
ZQguyzgGABufGCbIduF6WthsypPXPgfrZwEHfYfBrkCLsK4ZC5;AS000;АВТОРИЗАЦИЯ УСПЕШНО ЗАВЕРШЕНА;;;2020.12.18 11:25:24;2.00;RUB;mastercard;553691******1732;;;;*НЕ ЗАДАВАЛСЯ*;A.sltnv@gmail.com;035255;0;AYRAT SULTANOV;46.254.18.244;035311098342;*НЕ ЗАДАВАЛСЯ*;Authorized;;;2020.12.18 11:25:24;1;0000000;5E68174BA56A2ABFD7EF0307DD299305

[18/Dec/2020 11:25:24] INFO [parking.services:126] Деньги успешно списаны. Прошлый баланс: 0.0 р., сумма пополнения: 2.0 р.
[18/Dec/2020 15:57:04] INFO [parking.services:32] parking.services.make_payment. Invoice: Списание стоимости парковки при выезде из-за мелого баланса 1.0 руб., ID сеанса: 532,  ID счета: 6012
[18/Dec/2020 15:57:04] INFO [parking.services:66] session 532
[18/Dec/2020 15:57:07] INFO [parking.services:74] Ответ от Uniteller на запрос о реккурентном платеже: OrderNumber;Response_Code;Recommendation;Message;Comment;Date;Total;Currency;CardType;CardNumber;LastName;FirstName;MiddleName;Address;Email;ApprovalCode;CVC2;CardHolder;IPAddress;BillNumber;BankName;Status;Error_Code;Error_Comment;PacketDate;PaymentType;Phone;Signature
H8RyDo6RlAaFhzmE1mAzDo8XOpGvJOJMYEjbX6FHe2bhBiA6EU;AS000;АВТОРИЗАЦИЯ УСПЕШНО ЗАВЕРШЕНА;;;2020.12.18 15:57:07;1.00;RUB;mastercard;553691******1658;;;;*НЕ ЗАДАВАЛСЯ*;ttt.jam@mail.ru;027302;0;RISHAT GIMATDINOV;46.254.18.244;035315098634;*НЕ ЗАДАВАЛСЯ*;Authorized;;;2020.12.18 15:57:07;1;0000000;32ABE2D9B2BAF4DB09AECD1583A135D4

[18/Dec/2020 15:57:07] INFO [parking.services:126] Деньги успешно списаны. Прошлый баланс: 0.0 р., сумма пополнения: 1.0 р.
[18/Dec/2020 16:47:42] INFO [parking.services:32] parking.services.make_payment. Invoice: Списание стоимости парковки при выезде из-за мелого баланса 1.0 руб., ID сеанса: 534,  ID счета: 6015
[18/Dec/2020 16:47:42] INFO [parking.services:66] session 534
[18/Dec/2020 16:47:43] INFO [parking.services:74] Ответ от Uniteller на запрос о реккурентном платеже: OrderNumber;Response_Code;Recommendation;Message;Comment;Date;Total;Currency;CardType;CardNumber;LastName;FirstName;MiddleName;Address;Email;ApprovalCode;CVC2;CardHolder;IPAddress;BillNumber;BankName;Status;Error_Code;Error_Comment;PacketDate;PaymentType;Phone;Signature
n4nK5JluD5SGpwJv1IWSFNUM4sgT3SLslOMq7rXNY7IWZpfJAt;AS000;АВТОРИЗАЦИЯ УСПЕШНО ЗАВЕРШЕНА;;;2020.12.18 16:47:43;1.00;RUB;mastercard;553691******1732;;;;*НЕ ЗАДАВАЛСЯ*;A.sltnv@gmail.com;056143;0;AYRAT SULTANOV;46.254.18.244;035316098678;*НЕ ЗАДАВАЛСЯ*;Authorized;;;2020.12.18 16:47:43;1;0000000;4C50682AC947D47921E2F658A00DC3AD

[18/Dec/2020 16:47:43] INFO [parking.services:126] Деньги успешно списаны. Прошлый баланс: 0.0 р., сумма пополнения: 1.0 р.
[20/Dec/2020 21:09:06] INFO [parking.services:32] parking.services.make_payment. Invoice: Автопополнение баланса на  350.0 руб., ID сеанса: None,  ID счета: 6023
[20/Dec/2020 21:09:06] INFO [parking.services:66] session None
[20/Dec/2020 21:09:06] INFO [parking.services:74] Ответ от Uniteller на запрос о реккурентном платеже: ErrorCode;ErrorMessage
23;Incorrect Parent_Order_IDP

[21/Dec/2020 19:23:03] INFO [parking.services:285] Проверяем баланс для сессии парковки с id: 539
[21/Dec/2020 19:23:03] INFO [parking.services:300] проверяем баланс balance: 100, price: 200
[21/Dec/2020 19:23:03] ERROR [parking.services:309] У пользователя отсутсвует карта. Сессия с id: 539
[21/Dec/2020 19:23:03] INFO [parking.services:32] parking.services.make_payment. Invoice: Пополнение счета на 1.0 руб. за парковку, ID сеанса: 539,  ID счета: 6027
[21/Dec/2020 19:23:03] INFO [parking.services:66] session 539
[21/Dec/2020 19:23:04] INFO [parking.services:74] Ответ от Uniteller на запрос о реккурентном платеже: OrderNumber;Response_Code;Recommendation;Message;Comment;Date;Total;Currency;CardType;CardNumber;LastName;FirstName;MiddleName;Address;Email;ApprovalCode;CVC2;CardHolder;IPAddress;BillNumber;BankName;Status;Error_Code;Error_Comment;PacketDate;PaymentType;Phone;Signature
hGpJMKhqTenN1X90jF4TjIv7VdwlT7GLf7JydOZixZvuwM8Xau;AS000;АВТОРИЗАЦИЯ УСПЕШНО ЗАВЕРШЕНА;;;2020.12.21 19:23:04;1.00;RUB;mastercard;553691******1732;;;;*НЕ ЗАДАВАЛСЯ*;A.sltnv@gmail.com;096966;0;AYRAT SULTANOV;46.254.18.244;035619101279;*НЕ ЗАДАВАЛСЯ*;Authorized;;;2020.12.21 19:23:04;1;0000000;7F71F23C987C5E1DCDCB8D9D96EF2235

[21/Dec/2020 19:23:04] INFO [parking.services:126] Деньги успешно списаны. Прошлый баланс: 1.0 р., сумма пополнения: 1.0 р.
[22/Dec/2020 11:36:39] INFO [parking.services:285] Проверяем баланс для сессии парковки с id: 541
[22/Dec/2020 11:36:39] INFO [parking.services:300] проверяем баланс balance: 0, price: 200
[22/Dec/2020 11:36:39] ERROR [parking.services:309] У пользователя отсутсвует карта. Сессия с id: 541
[22/Dec/2020 11:36:39] INFO [parking.services:32] parking.services.make_payment. Invoice: Пополнение счета на 2.0 руб. за парковку, ID сеанса: 541,  ID счета: 6030
[22/Dec/2020 11:36:39] INFO [parking.services:66] session 541
[22/Dec/2020 11:36:40] INFO [parking.services:74] Ответ от Uniteller на запрос о реккурентном платеже: OrderNumber;Response_Code;Recommendation;Message;Comment;Date;Total;Currency;CardType;CardNumber;LastName;FirstName;MiddleName;Address;Email;ApprovalCode;CVC2;CardHolder;IPAddress;BillNumber;BankName;Status;Error_Code;Error_Comment;PacketDate;PaymentType;Phone;Signature
x66vVyCpmh7Hh1ePX7C88Cr4HFM3ZPnqsjYIqwegiXFPpdgzFU;AS000;АВТОРИЗАЦИЯ УСПЕШНО ЗАВЕРШЕНА;;;2020.12.22 11:36:40;2.00;RUB;mastercard;553691******1732;;;;*НЕ ЗАДАВАЛСЯ*;A.sltnv@gmail.com;044800;0;AYRAT SULTANOV;46.254.18.244;035711101650;*НЕ ЗАДАВАЛСЯ*;Authorized;;;2020.12.22 11:36:40;1;0000000;6095DFDDA499697C7A85E60F32914ACE

[22/Dec/2020 11:36:40] INFO [parking.services:126] Деньги успешно списаны. Прошлый баланс: 0.0 р., сумма пополнения: 2.0 р.
[22/Dec/2020 11:36:40] INFO [parking.services:285] Проверяем баланс для сессии парковки с id: 543
[22/Dec/2020 11:36:40] INFO [parking.services:300] проверяем баланс balance: 0, price: 200
[22/Dec/2020 11:36:40] ERROR [parking.services:309] У пользователя отсутсвует карта. Сессия с id: 543
[22/Dec/2020 11:36:40] INFO [parking.services:32] parking.services.make_payment. Invoice: Пополнение счета на 2.0 руб. за парковку, ID сеанса: 543,  ID счета: 6031
[22/Dec/2020 11:36:40] INFO [parking.services:66] session 543
[22/Dec/2020 11:36:41] INFO [parking.services:74] Ответ от Uniteller на запрос о реккурентном платеже: OrderNumber;Response_Code;Recommendation;Message;Comment;Date;Total;Currency;CardType;CardNumber;LastName;FirstName;MiddleName;Address;Email;ApprovalCode;CVC2;CardHolder;IPAddress;BillNumber;BankName;Status;Error_Code;Error_Comment;PacketDate;PaymentType;Phone;Signature
3t3PitftIAxV0wAJTuZgp0P3aPd2wyUQPkWXNgYHNCLm2wYVUV;AS000;АВТОРИЗАЦИЯ УСПЕШНО ЗАВЕРШЕНА;;;2020.12.22 11:36:41;2.00;RUB;mastercard;553691******1732;;;;*НЕ ЗАДАВАЛСЯ*;A.sltnv@gmail.com;017404;0;AYRAT SULTANOV;46.254.18.244;035711101652;*НЕ ЗАДАВАЛСЯ*;Authorized;;;2020.12.22 11:36:41;1;0000000;41D405C2A632D35B4075552A0901CB8E

[22/Dec/2020 11:36:41] INFO [parking.services:126] Деньги успешно списаны. Прошлый баланс: 0.0 р., сумма пополнения: 2.0 р.
[22/Dec/2020 11:38:09] INFO [parking.services:285] Проверяем баланс для сессии парковки с id: 547
[22/Dec/2020 11:38:09] INFO [parking.services:300] проверяем баланс balance: 0, price: 200
[22/Dec/2020 11:38:09] ERROR [parking.services:309] У пользователя отсутсвует карта. Сессия с id: 547
[22/Dec/2020 11:38:09] INFO [parking.services:32] parking.services.make_payment. Invoice: Пополнение счета на 2.0 руб. за парковку, ID сеанса: 547,  ID счета: 6033
[22/Dec/2020 11:38:09] INFO [parking.services:66] session 547
[22/Dec/2020 11:38:10] INFO [parking.services:74] Ответ от Uniteller на запрос о реккурентном платеже: OrderNumber;Response_Code;Recommendation;Message;Comment;Date;Total;Currency;CardType;CardNumber;LastName;FirstName;MiddleName;Address;Email;ApprovalCode;CVC2;CardHolder;IPAddress;BillNumber;BankName;Status;Error_Code;Error_Comment;PacketDate;PaymentType;Phone;Signature
m6Xl5JzNONDQ5z3icUkZp5n9PAVLr30z5m5Mi0bAKu9W11ABNh;AS000;АВТОРИЗАЦИЯ УСПЕШНО ЗАВЕРШЕНА;;;2020.12.22 11:38:10;2.00;RUB;mastercard;553691******1732;;;;*НЕ ЗАДАВАЛСЯ*;A.sltnv@gmail.com;064559;0;AYRAT SULTANOV;46.254.18.244;035711101655;*НЕ ЗАДАВАЛСЯ*;Authorized;;;2020.12.22 11:38:10;1;0000000;954C246967AC19B1DE720E2C16F2FA5C

[22/Dec/2020 11:38:10] INFO [parking.services:126] Деньги успешно списаны. Прошлый баланс: 0.0 р., сумма пополнения: 2.0 р.
[22/Dec/2020 11:38:39] INFO [parking.services:285] Проверяем баланс для сессии парковки с id: 549
[22/Dec/2020 11:38:39] INFO [parking.services:300] проверяем баланс balance: 0, price: 200
[22/Dec/2020 11:38:39] ERROR [parking.services:309] У пользователя отсутсвует карта. Сессия с id: 549
[22/Dec/2020 11:38:39] INFO [parking.services:32] parking.services.make_payment. Invoice: Пополнение счета на 2.0 руб. за парковку, ID сеанса: 549,  ID счета: 6035
[22/Dec/2020 11:38:39] INFO [parking.services:66] session 549
[22/Dec/2020 11:38:40] INFO [parking.services:74] Ответ от Uniteller на запрос о реккурентном платеже: OrderNumber;Response_Code;Recommendation;Message;Comment;Date;Total;Currency;CardType;CardNumber;LastName;FirstName;MiddleName;Address;Email;ApprovalCode;CVC2;CardHolder;IPAddress;BillNumber;BankName;Status;Error_Code;Error_Comment;PacketDate;PaymentType;Phone;Signature
l86QKmLpcuLnNwdcvshH1v5Ju0NSPfivTnOzEEA7Pn6fP6s1Tq;AS000;АВТОРИЗАЦИЯ УСПЕШНО ЗАВЕРШЕНА;;;2020.12.22 11:38:40;2.00;RUB;mastercard;553691******1732;;;;*НЕ ЗАДАВАЛСЯ*;A.sltnv@gmail.com;027430;0;AYRAT SULTANOV;46.254.18.244;035711101657;*НЕ ЗАДАВАЛСЯ*;Authorized;;;2020.12.22 11:38:40;1;0000000;2D7328D919C2E2FEA4060290E1C80E15

[22/Dec/2020 11:38:40] INFO [parking.services:126] Деньги успешно списаны. Прошлый баланс: 0.0 р., сумма пополнения: 2.0 р.
[22/Dec/2020 11:38:40] INFO [parking.services:285] Проверяем баланс для сессии парковки с id: 551
[22/Dec/2020 11:38:40] INFO [parking.services:300] проверяем баланс balance: 0, price: 200
[22/Dec/2020 11:38:40] ERROR [parking.services:309] У пользователя отсутсвует карта. Сессия с id: 551
[22/Dec/2020 11:38:40] INFO [parking.services:32] parking.services.make_payment. Invoice: Пополнение счета на 2.0 руб. за парковку, ID сеанса: 551,  ID счета: 6037
[22/Dec/2020 11:38:40] INFO [parking.services:66] session 551
[22/Dec/2020 11:38:41] INFO [parking.services:74] Ответ от Uniteller на запрос о реккурентном платеже: OrderNumber;Response_Code;Recommendation;Message;Comment;Date;Total;Currency;CardType;CardNumber;LastName;FirstName;MiddleName;Address;Email;ApprovalCode;CVC2;CardHolder;IPAddress;BillNumber;BankName;Status;Error_Code;Error_Comment;PacketDate;PaymentType;Phone;Signature
GFgcPDRdxl3i41SWG6oMZ8CAs9DBv2f4bunlCIz9djwdqwJ8Zz;AS000;АВТОРИЗАЦИЯ УСПЕШНО ЗАВЕРШЕНА;;;2020.12.22 11:38:41;2.00;RUB;mastercard;553691******1732;;;;*НЕ ЗАДАВАЛСЯ*;A.sltnv@gmail.com;090137;0;AYRAT SULTANOV;46.254.18.244;035711101659;*НЕ ЗАДАВАЛСЯ*;Authorized;;;2020.12.22 11:38:41;1;0000000;0F072EFDFECB448357F9B70E9849FA14

[22/Dec/2020 11:38:41] INFO [parking.services:126] Деньги успешно списаны. Прошлый баланс: 0.0 р., сумма пополнения: 2.0 р.
[22/Dec/2020 11:39:40] INFO [parking.services:285] Проверяем баланс для сессии парковки с id: 552
[22/Dec/2020 11:39:40] INFO [parking.services:300] проверяем баланс balance: 0, price: 200
[22/Dec/2020 11:39:40] ERROR [parking.services:309] У пользователя отсутсвует карта. Сессия с id: 552
[22/Dec/2020 11:39:40] INFO [parking.services:32] parking.services.make_payment. Invoice: Пополнение счета на 2.0 руб. за парковку, ID сеанса: 552,  ID счета: 6038
[22/Dec/2020 11:39:40] INFO [parking.services:66] session 552
[22/Dec/2020 11:39:41] INFO [parking.services:74] Ответ от Uniteller на запрос о реккурентном платеже: OrderNumber;Response_Code;Recommendation;Message;Comment;Date;Total;Currency;CardType;CardNumber;LastName;FirstName;MiddleName;Address;Email;ApprovalCode;CVC2;CardHolder;IPAddress;BillNumber;BankName;Status;Error_Code;Error_Comment;PacketDate;PaymentType;Phone;Signature
9buAZvLg4xjRHJHrW4Ois5bu0Becb0xDpOTdB3UOr9sMJtBFgf;AS000;АВТОРИЗАЦИЯ УСПЕШНО ЗАВЕРШЕНА;;;2020.12.22 11:39:41;2.00;RUB;mastercard;553691******1732;;;;*НЕ ЗАДАВАЛСЯ*;A.sltnv@gmail.com;097798;0;AYRAT SULTANOV;46.254.18.244;035711101662;*НЕ ЗАДАВАЛСЯ*;Authorized;;;2020.12.22 11:39:41;1;0000000;832485DCC9732897B15E14B1ECBD4E22

[22/Dec/2020 11:39:41] INFO [parking.services:126] Деньги успешно списаны. Прошлый баланс: 0.0 р., сумма пополнения: 2.0 р.
[22/Dec/2020 11:40:40] INFO [parking.services:285] Проверяем баланс для сессии парковки с id: 555
[22/Dec/2020 11:40:40] INFO [parking.services:300] проверяем баланс balance: 0, price: 200
[22/Dec/2020 11:40:40] ERROR [parking.services:309] У пользователя отсутсвует карта. Сессия с id: 555
[22/Dec/2020 11:40:40] INFO [parking.services:32] parking.services.make_payment. Invoice: Пополнение счета на 2.0 руб. за парковку, ID сеанса: 555,  ID счета: 6041
[22/Dec/2020 11:40:40] INFO [parking.services:66] session 555
[22/Dec/2020 11:40:41] INFO [parking.services:74] Ответ от Uniteller на запрос о реккурентном платеже: OrderNumber;Response_Code;Recommendation;Message;Comment;Date;Total;Currency;CardType;CardNumber;LastName;FirstName;MiddleName;Address;Email;ApprovalCode;CVC2;CardHolder;IPAddress;BillNumber;BankName;Status;Error_Code;Error_Comment;PacketDate;PaymentType;Phone;Signature
AO2oWVj93SrqK6wyZi7lIbJkmb9YBrndvOvLyzYq1wI1fvf3Z1;AS000;АВТОРИЗАЦИЯ УСПЕШНО ЗАВЕРШЕНА;;;2020.12.22 11:40:41;2.00;RUB;mastercard;553691******1732;;;;*НЕ ЗАДАВАЛСЯ*;A.sltnv@gmail.com;078577;0;AYRAT SULTANOV;46.254.18.244;035711101665;*НЕ ЗАДАВАЛСЯ*;Authorized;;;2020.12.22 11:40:41;1;0000000;2DD140C64AE95C922868FFD95CF5D0A9

[22/Dec/2020 11:40:41] INFO [parking.services:126] Деньги успешно списаны. Прошлый баланс: 0.0 р., сумма пополнения: 2.0 р.
[22/Dec/2020 11:41:10] INFO [parking.services:285] Проверяем баланс для сессии парковки с id: 558
[22/Dec/2020 11:41:10] INFO [parking.services:300] проверяем баланс balance: 0, price: 200
[22/Dec/2020 11:41:10] ERROR [parking.services:309] У пользователя отсутсвует карта. Сессия с id: 558
[22/Dec/2020 11:41:10] INFO [parking.services:32] parking.services.make_payment. Invoice: Пополнение счета на 2.0 руб. за парковку, ID сеанса: 558,  ID счета: 6044
[22/Dec/2020 11:41:10] INFO [parking.services:66] session 558
[22/Dec/2020 11:41:11] INFO [parking.services:74] Ответ от Uniteller на запрос о реккурентном платеже: OrderNumber;Response_Code;Recommendation;Message;Comment;Date;Total;Currency;CardType;CardNumber;LastName;FirstName;MiddleName;Address;Email;ApprovalCode;CVC2;CardHolder;IPAddress;BillNumber;BankName;Status;Error_Code;Error_Comment;PacketDate;PaymentType;Phone;Signature
Gt32rpCwEO1Vxd29WsjMRLmSgswJNckmxrEjUOQyvDzbWN6mQl;AS000;АВТОРИЗАЦИЯ УСПЕШНО ЗАВЕРШЕНА;;;2020.12.22 11:41:11;2.00;RUB;mastercard;553691******1732;;;;*НЕ ЗАДАВАЛСЯ*;A.sltnv@gmail.com;057226;0;AYRAT SULTANOV;46.254.18.244;035711101667;*НЕ ЗАДАВАЛСЯ*;Authorized;;;2020.12.22 11:41:11;1;0000000;E4E5EB2977619F10103373F9A83ED018

[22/Dec/2020 11:41:11] INFO [parking.services:126] Деньги успешно списаны. Прошлый баланс: 0.0 р., сумма пополнения: 2.0 р.
[22/Dec/2020 11:41:11] INFO [parking.services:285] Проверяем баланс для сессии парковки с id: 560
[22/Dec/2020 11:41:11] INFO [parking.services:300] проверяем баланс balance: 0, price: 200
[22/Dec/2020 11:41:11] ERROR [parking.services:309] У пользователя отсутсвует карта. Сессия с id: 560
[22/Dec/2020 11:41:11] INFO [parking.services:32] parking.services.make_payment. Invoice: Пополнение счета на 2.0 руб. за парковку, ID сеанса: 560,  ID счета: 6046
[22/Dec/2020 11:41:11] INFO [parking.services:66] session 560
[22/Dec/2020 11:41:12] INFO [parking.services:74] Ответ от Uniteller на запрос о реккурентном платеже: OrderNumber;Response_Code;Recommendation;Message;Comment;Date;Total;Currency;CardType;CardNumber;LastName;FirstName;MiddleName;Address;Email;ApprovalCode;CVC2;CardHolder;IPAddress;BillNumber;BankName;Status;Error_Code;Error_Comment;PacketDate;PaymentType;Phone;Signature
PiGbvy8Nsb1ALOeWiic18dQfz4OpvA85vvpgzYldvqtFdmQW64;AS000;АВТОРИЗАЦИЯ УСПЕШНО ЗАВЕРШЕНА;;;2020.12.22 11:41:12;2.00;RUB;mastercard;553691******1732;;;;*НЕ ЗАДАВАЛСЯ*;A.sltnv@gmail.com;031325;0;AYRAT SULTANOV;46.254.18.244;035711101669;*НЕ ЗАДАВАЛСЯ*;Authorized;;;2020.12.22 11:41:12;1;0000000;0E029EC20EAB9484291FE765DB56914B

[22/Dec/2020 11:41:12] INFO [parking.services:126] Деньги успешно списаны. Прошлый баланс: 0.0 р., сумма пополнения: 2.0 р.
[22/Dec/2020 11:41:40] INFO [parking.services:285] Проверяем баланс для сессии парковки с id: 561
[22/Dec/2020 11:41:40] INFO [parking.services:300] проверяем баланс balance: 0, price: 200
[22/Dec/2020 11:41:40] ERROR [parking.services:309] У пользователя отсутсвует карта. Сессия с id: 561
[22/Dec/2020 11:41:40] INFO [parking.services:32] parking.services.make_payment. Invoice: Пополнение счета на 2.0 руб. за парковку, ID сеанса: 561,  ID счета: 6047
[22/Dec/2020 11:41:40] INFO [parking.services:66] session 561
[22/Dec/2020 11:41:41] INFO [parking.services:74] Ответ от Uniteller на запрос о реккурентном платеже: OrderNumber;Response_Code;Recommendation;Message;Comment;Date;Total;Currency;CardType;CardNumber;LastName;FirstName;MiddleName;Address;Email;ApprovalCode;CVC2;CardHolder;IPAddress;BillNumber;BankName;Status;Error_Code;Error_Comment;PacketDate;PaymentType;Phone;Signature
6jzHqNGfoMK5tyMF7f1Jr78mk8mDMpPVHXvXgo6LkRBgwhsKke;AS000;АВТОРИЗАЦИЯ УСПЕШНО ЗАВЕРШЕНА;;;2020.12.22 11:41:41;2.00;RUB;mastercard;553691******1732;;;;*НЕ ЗАДАВАЛСЯ*;A.sltnv@gmail.com;019769;0;AYRAT SULTANOV;46.254.18.244;035711101670;*НЕ ЗАДАВАЛСЯ*;Authorized;;;2020.12.22 11:41:41;1;0000000;69D4CD9E81DEAA31A07690A15B7139A2

[22/Dec/2020 11:41:41] INFO [parking.services:126] Деньги успешно списаны. Прошлый баланс: 0.0 р., сумма пополнения: 2.0 р.
[22/Dec/2020 11:42:40] INFO [parking.services:285] Проверяем баланс для сессии парковки с id: 563
[22/Dec/2020 11:42:40] INFO [parking.services:300] проверяем баланс balance: 0, price: 200
[22/Dec/2020 11:42:40] ERROR [parking.services:309] У пользователя отсутсвует карта. Сессия с id: 563
[22/Dec/2020 11:42:40] INFO [parking.services:32] parking.services.make_payment. Invoice: Пополнение счета на 2.0 руб. за парковку, ID сеанса: 563,  ID счета: 6049
[22/Dec/2020 11:42:40] INFO [parking.services:66] session 563
[22/Dec/2020 11:42:41] INFO [parking.services:74] Ответ от Uniteller на запрос о реккурентном платеже: OrderNumber;Response_Code;Recommendation;Message;Comment;Date;Total;Currency;CardType;CardNumber;LastName;FirstName;MiddleName;Address;Email;ApprovalCode;CVC2;CardHolder;IPAddress;BillNumber;BankName;Status;Error_Code;Error_Comment;PacketDate;PaymentType;Phone;Signature
A8ONNgbNTfnJZFkHTvV9g3eIiJPIOaST5Qcb1p1R6gpxSNa0DN;AS000;АВТОРИЗАЦИЯ УСПЕШНО ЗАВЕРШЕНА;;;2020.12.22 11:42:41;2.00;RUB;mastercard;553691******1732;;;;*НЕ ЗАДАВАЛСЯ*;A.sltnv@gmail.com;079824;0;AYRAT SULTANOV;46.254.18.244;035711101672;*НЕ ЗАДАВАЛСЯ*;Authorized;;;2020.12.22 11:42:41;1;0000000;CE4C8087CDEF944AC5F25512EBB0A33E

[22/Dec/2020 11:42:41] INFO [parking.services:126] Деньги успешно списаны. Прошлый баланс: 0.0 р., сумма пополнения: 2.0 р.
[22/Dec/2020 11:43:10] INFO [parking.services:285] Проверяем баланс для сессии парковки с id: 565
[22/Dec/2020 11:43:10] INFO [parking.services:300] проверяем баланс balance: 0, price: 200
[22/Dec/2020 11:43:10] ERROR [parking.services:309] У пользователя отсутсвует карта. Сессия с id: 565
[22/Dec/2020 11:43:10] INFO [parking.services:32] parking.services.make_payment. Invoice: Пополнение счета на 2.0 руб. за парковку, ID сеанса: 565,  ID счета: 6051
[22/Dec/2020 11:43:10] INFO [parking.services:66] session 565
[22/Dec/2020 11:43:11] INFO [parking.services:74] Ответ от Uniteller на запрос о реккурентном платеже: OrderNumber;Response_Code;Recommendation;Message;Comment;Date;Total;Currency;CardType;CardNumber;LastName;FirstName;MiddleName;Address;Email;ApprovalCode;CVC2;CardHolder;IPAddress;BillNumber;BankName;Status;Error_Code;Error_Comment;PacketDate;PaymentType;Phone;Signature
NMthh1Mq46Yak6PqVApduvO71ywFVLD6bhcLBBIwj9GFMxouuc;AS000;АВТОРИЗАЦИЯ УСПЕШНО ЗАВЕРШЕНА;;;2020.12.22 11:43:11;2.00;RUB;mastercard;553691******1732;;;;*НЕ ЗАДАВАЛСЯ*;A.sltnv@gmail.com;064056;0;AYRAT SULTANOV;46.254.18.244;035711101676;*НЕ ЗАДАВАЛСЯ*;Authorized;;;2020.12.22 11:43:11;1;0000000;07A86A13EABB6AACEDE3F235CD61226A

[22/Dec/2020 11:43:11] INFO [parking.services:126] Деньги успешно списаны. Прошлый баланс: 0.0 р., сумма пополнения: 2.0 р.
[22/Dec/2020 11:43:40] INFO [parking.services:285] Проверяем баланс для сессии парковки с id: 566
[22/Dec/2020 11:43:40] INFO [parking.services:300] проверяем баланс balance: 0, price: 200
[22/Dec/2020 11:43:40] ERROR [parking.services:309] У пользователя отсутсвует карта. Сессия с id: 566
[22/Dec/2020 11:43:40] INFO [parking.services:32] parking.services.make_payment. Invoice: Пополнение счета на 2.0 руб. за парковку, ID сеанса: 566,  ID счета: 6052
[22/Dec/2020 11:43:40] INFO [parking.services:66] session 566
[22/Dec/2020 11:43:41] INFO [parking.services:74] Ответ от Uniteller на запрос о реккурентном платеже: OrderNumber;Response_Code;Recommendation;Message;Comment;Date;Total;Currency;CardType;CardNumber;LastName;FirstName;MiddleName;Address;Email;ApprovalCode;CVC2;CardHolder;IPAddress;BillNumber;BankName;Status;Error_Code;Error_Comment;PacketDate;PaymentType;Phone;Signature
eOhDp45wkCgvafra8Xbu43O5yIv2YcM7U5WmQuPRnjFpPPoVST;AS000;АВТОРИЗАЦИЯ УСПЕШНО ЗАВЕРШЕНА;;;2020.12.22 11:43:41;2.00;RUB;mastercard;553691******1732;;;;*НЕ ЗАДАВАЛСЯ*;A.sltnv@gmail.com;086091;0;AYRAT SULTANOV;46.254.18.244;035711101679;*НЕ ЗАДАВАЛСЯ*;Authorized;;;2020.12.22 11:43:41;1;0000000;223589BC08EE6CDA5F905BA123608972

[22/Dec/2020 11:43:41] INFO [parking.services:126] Деньги успешно списаны. Прошлый баланс: 0.0 р., сумма пополнения: 2.0 р.
[22/Dec/2020 11:43:41] INFO [parking.services:285] Проверяем баланс для сессии парковки с id: 569
[22/Dec/2020 11:43:41] INFO [parking.services:300] проверяем баланс balance: 0, price: 200
[22/Dec/2020 11:43:41] ERROR [parking.services:309] У пользователя отсутсвует карта. Сессия с id: 569
[22/Dec/2020 11:43:41] INFO [parking.services:32] parking.services.make_payment. Invoice: Пополнение счета на 2.0 руб. за парковку, ID сеанса: 569,  ID счета: 6055
[22/Dec/2020 11:43:41] INFO [parking.services:66] session 569
[22/Dec/2020 11:43:42] INFO [parking.services:74] Ответ от Uniteller на запрос о реккурентном платеже: OrderNumber;Response_Code;Recommendation;Message;Comment;Date;Total;Currency;CardType;CardNumber;LastName;FirstName;MiddleName;Address;Email;ApprovalCode;CVC2;CardHolder;IPAddress;BillNumber;BankName;Status;Error_Code;Error_Comment;PacketDate;PaymentType;Phone;Signature
J86FnGg7vftKXfBMEpMapsQ9ULRXXD6jXL9nSQHNoQoaojGSEB;AS000;АВТОРИЗАЦИЯ УСПЕШНО ЗАВЕРШЕНА;;;2020.12.22 11:43:42;2.00;RUB;mastercard;553691******1732;;;;*НЕ ЗАДАВАЛСЯ*;A.sltnv@gmail.com;051194;0;AYRAT SULTANOV;46.254.18.244;035711101681;*НЕ ЗАДАВАЛСЯ*;Authorized;;;2020.12.22 11:43:42;1;0000000;A1BB66D8A7A91252BF5C1698AF392D36

[22/Dec/2020 11:43:42] INFO [parking.services:126] Деньги успешно списаны. Прошлый баланс: 0.0 р., сумма пополнения: 2.0 р.
[22/Dec/2020 11:44:11] INFO [parking.services:285] Проверяем баланс для сессии парковки с id: 571
[22/Dec/2020 11:44:11] INFO [parking.services:300] проверяем баланс balance: 0, price: 200
[22/Dec/2020 11:44:11] ERROR [parking.services:309] У пользователя отсутсвует карта. Сессия с id: 571
[22/Dec/2020 11:44:11] INFO [parking.services:32] parking.services.make_payment. Invoice: Пополнение счета на 2.0 руб. за парковку, ID сеанса: 571,  ID счета: 6057
[22/Dec/2020 11:44:11] INFO [parking.services:66] session 571
[22/Dec/2020 11:44:12] INFO [parking.services:74] Ответ от Uniteller на запрос о реккурентном платеже: OrderNumber;Response_Code;Recommendation;Message;Comment;Date;Total;Currency;CardType;CardNumber;LastName;FirstName;MiddleName;Address;Email;ApprovalCode;CVC2;CardHolder;IPAddress;BillNumber;BankName;Status;Error_Code;Error_Comment;PacketDate;PaymentType;Phone;Signature
Gn1JdHnIIrKJ3LDziRC9AU3zaftJ6tZBkyAzxYIt7fsQ6BRY0C;AS000;АВТОРИЗАЦИЯ УСПЕШНО ЗАВЕРШЕНА;;;2020.12.22 11:44:11;2.00;RUB;mastercard;553691******1732;;;;*НЕ ЗАДАВАЛСЯ*;A.sltnv@gmail.com;060829;0;AYRAT SULTANOV;46.254.18.244;035711101683;*НЕ ЗАДАВАЛСЯ*;Authorized;;;2020.12.22 11:44:11;1;0000000;04C19B57E3E8607E23B454FB54A96FE6

[22/Dec/2020 11:44:12] INFO [parking.services:126] Деньги успешно списаны. Прошлый баланс: 0.0 р., сумма пополнения: 2.0 р.
[22/Dec/2020 11:44:41] INFO [parking.services:285] Проверяем баланс для сессии парковки с id: 572
[22/Dec/2020 11:44:41] INFO [parking.services:300] проверяем баланс balance: 0, price: 200
[22/Dec/2020 11:44:41] ERROR [parking.services:309] У пользователя отсутсвует карта. Сессия с id: 572
[22/Dec/2020 11:44:41] INFO [parking.services:32] parking.services.make_payment. Invoice: Пополнение счета на 2.0 руб. за парковку, ID сеанса: 572,  ID счета: 6058
[22/Dec/2020 11:44:41] INFO [parking.services:66] session 572
[22/Dec/2020 11:44:42] INFO [parking.services:74] Ответ от Uniteller на запрос о реккурентном платеже: OrderNumber;Response_Code;Recommendation;Message;Comment;Date;Total;Currency;CardType;CardNumber;LastName;FirstName;MiddleName;Address;Email;ApprovalCode;CVC2;CardHolder;IPAddress;BillNumber;BankName;Status;Error_Code;Error_Comment;PacketDate;PaymentType;Phone;Signature
otNlRpFzhjFWBc9FQARV1OYya2l5HB0yCrDPU0L6ArIMn3Dld8;AS000;АВТОРИЗАЦИЯ УСПЕШНО ЗАВЕРШЕНА;;;2020.12.22 11:44:42;2.00;RUB;mastercard;553691******1732;;;;*НЕ ЗАДАВАЛСЯ*;A.sltnv@gmail.com;023530;0;AYRAT SULTANOV;46.254.18.244;035711101686;*НЕ ЗАДАВАЛСЯ*;Authorized;;;2020.12.22 11:44:42;1;0000000;E3E92A26597D75CDE5B8DB980F1E97D6

[22/Dec/2020 11:44:42] INFO [parking.services:126] Деньги успешно списаны. Прошлый баланс: 0.0 р., сумма пополнения: 2.0 р.
[22/Dec/2020 11:44:42] INFO [parking.services:285] Проверяем баланс для сессии парковки с id: 575
[22/Dec/2020 11:44:42] INFO [parking.services:300] проверяем баланс balance: 0, price: 200
[22/Dec/2020 11:44:42] ERROR [parking.services:309] У пользователя отсутсвует карта. Сессия с id: 575
[22/Dec/2020 11:44:42] INFO [parking.services:32] parking.services.make_payment. Invoice: Пополнение счета на 2.0 руб. за парковку, ID сеанса: 575,  ID счета: 6061
[22/Dec/2020 11:44:42] INFO [parking.services:66] session 575
[22/Dec/2020 11:44:42] INFO [parking.services:74] Ответ от Uniteller на запрос о реккурентном платеже: OrderNumber;Response_Code;Recommendation;Message;Comment;Date;Total;Currency;CardType;CardNumber;LastName;FirstName;MiddleName;Address;Email;ApprovalCode;CVC2;CardHolder;IPAddress;BillNumber;BankName;Status;Error_Code;Error_Comment;PacketDate;PaymentType;Phone;Signature
v5k5Wv1I6rnOCHr6xljWE6x47or5hvAflzPT5ahzWy742VWnZj;AS000;АВТОРИЗАЦИЯ УСПЕШНО ЗАВЕРШЕНА;;;2020.12.22 11:44:42;2.00;RUB;mastercard;553691******1732;;;;*НЕ ЗАДАВАЛСЯ*;A.sltnv@gmail.com;054265;0;AYRAT SULTANOV;46.254.18.244;035711101689;*НЕ ЗАДАВАЛСЯ*;Authorized;;;2020.12.22 11:44:42;1;0000000;4A6FF0FA7B79990E8EA0DE5DC7846EFC

[22/Dec/2020 11:44:42] INFO [parking.services:126] Деньги успешно списаны. Прошлый баланс: 0.0 р., сумма пополнения: 2.0 р.
[22/Dec/2020 11:45:11] INFO [parking.services:285] Проверяем баланс для сессии парковки с id: 576
[22/Dec/2020 11:45:11] INFO [parking.services:300] проверяем баланс balance: 0, price: 200
[22/Dec/2020 11:45:11] ERROR [parking.services:309] У пользователя отсутсвует карта. Сессия с id: 576
[22/Dec/2020 11:45:11] INFO [parking.services:32] parking.services.make_payment. Invoice: Пополнение счета на 2.0 руб. за парковку, ID сеанса: 576,  ID счета: 6063
[22/Dec/2020 11:45:11] INFO [parking.services:66] session 576
[22/Dec/2020 11:45:12] INFO [parking.services:74] Ответ от Uniteller на запрос о реккурентном платеже: OrderNumber;Response_Code;Recommendation;Message;Comment;Date;Total;Currency;CardType;CardNumber;LastName;FirstName;MiddleName;Address;Email;ApprovalCode;CVC2;CardHolder;IPAddress;BillNumber;BankName;Status;Error_Code;Error_Comment;PacketDate;PaymentType;Phone;Signature
OSQyFzmO8Y7dKTNOTD1RF5oDQRmIe0BeekRKe3VfHZFiJ5bSFm;AS000;АВТОРИЗАЦИЯ УСПЕШНО ЗАВЕРШЕНА;;;2020.12.22 11:45:12;2.00;RUB;mastercard;553691******1732;;;;*НЕ ЗАДАВАЛСЯ*;A.sltnv@gmail.com;093048;0;AYRAT SULTANOV;46.254.18.244;035711101691;*НЕ ЗАДАВАЛСЯ*;Authorized;;;2020.12.22 11:45:12;1;0000000;80C09DFF1FB8D057A72D9C2C97F24DB5

[22/Dec/2020 11:45:12] INFO [parking.services:126] Деньги успешно списаны. Прошлый баланс: 0.0 р., сумма пополнения: 2.0 р.
[22/Dec/2020 11:45:41] INFO [parking.services:285] Проверяем баланс для сессии парковки с id: 579
[22/Dec/2020 11:45:41] INFO [parking.services:300] проверяем баланс balance: 0, price: 200
[22/Dec/2020 11:45:41] ERROR [parking.services:309] У пользователя отсутсвует карта. Сессия с id: 579
[22/Dec/2020 11:45:41] INFO [parking.services:32] parking.services.make_payment. Invoice: Пополнение счета на 2.0 руб. за парковку, ID сеанса: 579,  ID счета: 6065
[22/Dec/2020 11:45:41] INFO [parking.services:66] session 579
[22/Dec/2020 11:45:42] INFO [parking.services:74] Ответ от Uniteller на запрос о реккурентном платеже: OrderNumber;Response_Code;Recommendation;Message;Comment;Date;Total;Currency;CardType;CardNumber;LastName;FirstName;MiddleName;Address;Email;ApprovalCode;CVC2;CardHolder;IPAddress;BillNumber;BankName;Status;Error_Code;Error_Comment;PacketDate;PaymentType;Phone;Signature
UhcWwdHv8DGXPOAxiFQJ9Gh1OqnJgQArfVz9iiAzNBRX2dmoZ5;AS000;АВТОРИЗАЦИЯ УСПЕШНО ЗАВЕРШЕНА;;;2020.12.22 11:45:42;2.00;RUB;mastercard;553691******1732;;;;*НЕ ЗАДАВАЛСЯ*;A.sltnv@gmail.com;092409;0;AYRAT SULTANOV;46.254.18.244;035711101695;*НЕ ЗАДАВАЛСЯ*;Authorized;;;2020.12.22 11:45:42;1;0000000;3988962F1B8A79957796AB0622CCA296

[22/Dec/2020 11:45:42] INFO [parking.services:126] Деньги успешно списаны. Прошлый баланс: 0.0 р., сумма пополнения: 2.0 р.
[22/Dec/2020 11:46:11] INFO [parking.services:285] Проверяем баланс для сессии парковки с id: 582
[22/Dec/2020 11:46:11] INFO [parking.services:300] проверяем баланс balance: 0, price: 200
[22/Dec/2020 11:46:11] ERROR [parking.services:309] У пользователя отсутсвует карта. Сессия с id: 582
[22/Dec/2020 11:46:11] INFO [parking.services:32] parking.services.make_payment. Invoice: Пополнение счета на 2.0 руб. за парковку, ID сеанса: 582,  ID счета: 6068
[22/Dec/2020 11:46:11] INFO [parking.services:66] session 582
[22/Dec/2020 11:46:12] INFO [parking.services:74] Ответ от Uniteller на запрос о реккурентном платеже: OrderNumber;Response_Code;Recommendation;Message;Comment;Date;Total;Currency;CardType;CardNumber;LastName;FirstName;MiddleName;Address;Email;ApprovalCode;CVC2;CardHolder;IPAddress;BillNumber;BankName;Status;Error_Code;Error_Comment;PacketDate;PaymentType;Phone;Signature
OemLyClR1d0o78YiPL86jpPfpno9MpEzqewN7ie6A6vKY2am3G;AS000;АВТОРИЗАЦИЯ УСПЕШНО ЗАВЕРШЕНА;;;2020.12.22 11:46:12;2.00;RUB;mastercard;553691******1732;;;;*НЕ ЗАДАВАЛСЯ*;A.sltnv@gmail.com;028673;0;AYRAT SULTANOV;46.254.18.244;035711101696;*НЕ ЗАДАВАЛСЯ*;Authorized;;;2020.12.22 11:46:12;1;0000000;AEB79891ED9C933125548758326C3355

[22/Dec/2020 11:46:12] INFO [parking.services:126] Деньги успешно списаны. Прошлый баланс: 0.0 р., сумма пополнения: 2.0 р.
[22/Dec/2020 11:46:41] INFO [parking.services:285] Проверяем баланс для сессии парковки с id: 583
[22/Dec/2020 11:46:41] INFO [parking.services:300] проверяем баланс balance: 200, price: 200
[22/Dec/2020 12:49:51] INFO [parking.services:32] parking.services.make_payment. Invoice: Списание стоимости парковки при выезде из-за мелого баланса 2.0 руб., ID сеанса: 559,  ID счета: 6071
[22/Dec/2020 12:49:51] INFO [parking.services:66] session 559
[22/Dec/2020 12:49:52] INFO [parking.services:74] Ответ от Uniteller на запрос о реккурентном платеже: OrderNumber;Response_Code;Recommendation;Message;Comment;Date;Total;Currency;CardType;CardNumber;LastName;FirstName;MiddleName;Address;Email;ApprovalCode;CVC2;CardHolder;IPAddress;BillNumber;BankName;Status;Error_Code;Error_Comment;PacketDate;PaymentType;Phone;Signature
NHdlmcesnn7ydkOr6mcbyLxowlng4omCuZNRDH0O91PaKahFbU;AS000;АВТОРИЗАЦИЯ УСПЕШНО ЗАВЕРШЕНА;;;2020.12.22 12:49:52;2.00;RUB;mastercard;553691******1732;;;;*НЕ ЗАДАВАЛСЯ*;A.sltnv@gmail.com;080924;0;AYRAT SULTANOV;46.254.18.244;035712101759;*НЕ ЗАДАВАЛСЯ*;Authorized;;;2020.12.22 12:49:52;1;0000000;37F646DE91831F689D9CEB3815AF2D88

[22/Dec/2020 12:49:52] INFO [parking.services:126] Деньги успешно списаны. Прошлый баланс: 0.0 р., сумма пополнения: 2.0 р.
[22/Dec/2020 20:55:42] INFO [parking.services:32] parking.services.make_payment. Invoice: Списание стоимости парковки при выезде из-за мелого баланса 1.0 руб., ID сеанса: 586,  ID счета: 6073
[22/Dec/2020 20:55:42] INFO [parking.services:66] session 586
[22/Dec/2020 20:55:43] INFO [parking.services:74] Ответ от Uniteller на запрос о реккурентном платеже: OrderNumber;Response_Code;Recommendation;Message;Comment;Date;Total;Currency;CardType;CardNumber;LastName;FirstName;MiddleName;Address;Email;ApprovalCode;CVC2;CardHolder;IPAddress;BillNumber;BankName;Status;Error_Code;Error_Comment;PacketDate;PaymentType;Phone;Signature
PyKi9RSnSo8vuVRzNFan0jXhtGn61XgqEmKJK9RW6fCl1nAvrK;AS000;АВТОРИЗАЦИЯ УСПЕШНО ЗАВЕРШЕНА;;;2020.12.22 20:55:43;1.00;RUB;mastercard;553691******1732;;;;*НЕ ЗАДАВАЛСЯ*;A.sltnv@gmail.com;056677;0;AYRAT SULTANOV;46.254.18.244;035720102208;*НЕ ЗАДАВАЛСЯ*;Authorized;;;2020.12.22 20:55:43;1;0000000;418882976FD7CB57AD1A7912005BAE6D

[22/Dec/2020 20:55:43] INFO [parking.services:126] Деньги успешно списаны. Прошлый баланс: 0.0 р., сумма пополнения: 1.0 р.
[23/Dec/2020 22:33:15] INFO [parking.services:32] parking.services.make_payment. Invoice: Автопополнение баланса на  350.0 руб., ID сеанса: None,  ID счета: 6075
[23/Dec/2020 22:33:15] INFO [parking.services:66] session None
[23/Dec/2020 22:33:15] INFO [parking.services:74] Ответ от Uniteller на запрос о реккурентном платеже: ErrorCode;ErrorMessage
23;Incorrect Parent_Order_IDP

[25/Dec/2020 12:02:09] INFO [parking.services:32] parking.services.make_payment. Invoice: Автопополнение баланса на  350.0 руб., ID сеанса: None,  ID счета: 6078
[25/Dec/2020 12:02:09] INFO [parking.services:66] session None
[25/Dec/2020 12:02:09] INFO [parking.services:74] Ответ от Uniteller на запрос о реккурентном платеже: ErrorCode;ErrorMessage
23;Incorrect Parent_Order_IDP

